<?xml version="1.0" encoding="utf-8"?>
<!-- Generator: Adobe Illustrator 24.0.1, SVG Export Plug-In . SVG Version: 6.00 Build 0)  -->
<svg version="1.1" id="Calque_1" xmlns="http://www.w3.org/2000/svg" xmlns:xlink="http://www.w3.org/1999/xlink" x="0px" y="0px"
	 viewBox="0 0 869.4 597.3" style="enable-background:new 0 0 869.4 597.3;" xml:space="preserve">
<style type="text/css">
	.st0{fill:#3E99C1;}
	.st1{clip-path:url(#SVGID_2_);}
	.st2{opacity:0.3;}
	.st3{fill:none;stroke:#FFFFFF;stroke-width:0.86;stroke-miterlimit:10;}
	.st4{fill:#FFFFFF;}
	.st5{fill:none;stroke:#FFFFFF;stroke-width:0.86;stroke-miterlimit:10;stroke-dasharray:5.94,5.94;}
	.st6{fill:none;stroke:#FFFFFF;stroke-width:0.86;stroke-miterlimit:10;stroke-dasharray:5.82,5.82;}
	.st7{fill:none;stroke:#FFFFFF;stroke-width:0.86;stroke-miterlimit:10;stroke-dasharray:6.44,6.44;}
	.st8{fill:none;stroke:#FFFFFF;stroke-width:0.86;stroke-miterlimit:10;stroke-dasharray:6.16,6.16;}
	.st9{fill:none;stroke:#FFFFFF;stroke-width:0.86;stroke-miterlimit:10;stroke-dasharray:5.58,5.58;}
	.st10{fill:none;stroke:#FFFFFF;stroke-width:0.86;stroke-miterlimit:10;stroke-dasharray:5.71,5.71;}
	.st11{fill:none;stroke:#FFFFFF;stroke-width:0.86;stroke-miterlimit:10;stroke-dasharray:5.23,5.23;}
</style>
<title>Fichier 17</title>
<g id="Calque_2_1_">
	<g id="SITE_WEB">
		<path class="st0" d="M9.5,0h795.9c0,2.8,134.7,176.9-11.4,269.1c-149.8,94.5-54.8,178.8-207.9,271.5
			c-75.3,45.6-149.7,54.5-233.4,44.1c-47-5.8-107.6-32.5-144.9-61.7C110.6,447.2,54.3,330.4,38,209.8L9.5,0z"/>
		<g>
			<defs>
				<path id="SVGID_1_" d="M9.5,0h795.9c0,2.8,134.7,176.9-11.4,269.1c-149.8,94.5-54.8,178.8-207.9,271.5
					c-75.3,45.6-149.7,54.5-233.4,44.1c-47-5.8-107.6-32.5-144.9-61.7C110.6,447.2,54.3,330.4,38,209.8L9.5,0z"/>
			</defs>
			<clipPath id="SVGID_2_">
				<use xlink:href="#SVGID_1_"  style="overflow:visible;"/>
			</clipPath>
			<g class="st1">
				<g id="maillage" class="st2">
					<polygon class="st3" points="215.8,577.8 397.5,522.1 314.4,635.2 					"/>
					<polygon class="st3" points="274.7,479.3 85.6,460.7 157.6,376.5 					"/>
					<polygon class="st3" points="157,375.3 112.9,190.5 216,231.1 					"/>
					<polygon class="st3" points="110.9,189.9 -23.9,57.1 175,34 					"/>
					<polygon class="st3" points="110.9,189.9 11.4,351.8 -32.8,250.2 					"/>
					<polygon class="st3" points="578.2,580.7 397.5,522.1 547.1,490.1 					"/>
					<polygon class="st3" points="686.6,619.2 547.1,490.1 696.4,523.9 					"/>
					<circle class="st4" cx="396.3" cy="522.1" r="4.6"/>
					<circle class="st4" cx="546.6" cy="490.1" r="4.6"/>
					<circle class="st4" cx="273.5" cy="479.9" r="4.6"/>
					<circle class="st4" cx="84.5" cy="460.4" r="4.6"/>
					<circle class="st4" cx="157" cy="375.3" r="4.6"/>
					<circle class="st4" cx="10.6" cy="352.7" r="4.6"/>
					<circle class="st4" cx="216" cy="231" r="4.6"/>
					<circle class="st4" cx="174.9" cy="34.2" r="4.6"/>
					<circle class="st4" cx="110.9" cy="189.9" r="4.6"/>
					<polygon class="st3" points="864.6,279.9 785.9,155.1 889,195.6 					"/>
					<polygon class="st3" points="783.9,154.4 700.1,-26 863.7,-24.3 					"/>
					<polygon class="st3" points="783.9,154.4 785.1,344.4 713.4,271.9 					"/>
					<circle class="st4" cx="864.6" cy="279.9" r="4.6"/>
					<circle class="st4" cx="889" cy="195.5" r="4.6"/>
					<line class="st3" x1="688.9" y1="160.3" x2="691.9" y2="160.2"/>
					<line class="st5" x1="697.9" y1="159.8" x2="777.9" y2="154.8"/>
					<line class="st3" x1="780.9" y1="154.6" x2="783.9" y2="154.4"/>
					<line class="st3" x1="680.4" y1="285" x2="683.1" y2="283.9"/>
					<line class="st6" x1="688.5" y1="281.7" x2="707.4" y2="274.1"/>
					<line class="st3" x1="710.1" y1="273" x2="712.9" y2="271.9"/>
					<line class="st3" x1="217.3" y1="230.6" x2="220.3" y2="230.8"/>
					<line class="st7" x1="226.7" y1="231.2" x2="274.9" y2="234.1"/>
					<line class="st3" x1="278.1" y1="234.3" x2="281.1" y2="234.4"/>
					<line class="st3" x1="175" y1="34" x2="177.9" y2="34.5"/>
					<line class="st8" x1="184" y1="35.7" x2="289.7" y2="56.8"/>
					<line class="st3" x1="292.7" y1="57.4" x2="295.7" y2="58"/>
					<line class="st3" x1="547.1" y1="490.1" x2="547.3" y2="487.2"/>
					<line class="st9" x1="547.7" y1="481.6" x2="549.7" y2="451"/>
					<line class="st3" x1="549.9" y1="448.2" x2="550.1" y2="445.2"/>
					<line class="st3" x1="415.2" y1="467.9" x2="414.2" y2="470.8"/>
					<line class="st10" x1="412.3" y1="476.2" x2="398.2" y2="516.6"/>
					<line class="st3" x1="397.2" y1="519.3" x2="396.3" y2="522.1"/>
					<line class="st3" x1="305.9" y1="450.4" x2="303.7" y2="452.4"/>
					<line class="st11" x1="299.9" y1="455.9" x2="278.8" y2="475.5"/>
					<line class="st3" x1="276.9" y1="477.3" x2="274.7" y2="479.3"/>
					<circle class="st4" cx="783.9" cy="154.4" r="4.6"/>
					<circle class="st4" cx="712.9" cy="271.9" r="4.6"/>
					<polyline class="st3" points="427.2,634.7 396.3,522.1 274.7,479.3 100.4,544.4 					"/>
				</g>
			</g>
		</g>
	</g>
</g>
</svg>
