<?xml version="1.0" encoding="utf-8"?>
<!-- Generator: Adobe Illustrator 24.0.1, SVG Export Plug-In . SVG Version: 6.00 Build 0)  -->
<svg version="1.1" id="Calque_1" xmlns="http://www.w3.org/2000/svg" xmlns:xlink="http://www.w3.org/1999/xlink" x="0px" y="0px"
	 viewBox="0 0 23 16" style="enable-background:new 0 0 23 16;" xml:space="preserve">
<style type="text/css">
	.st0{fill:#FFFFFF;}
</style>
<path class="st0" d="M12.8,14.9c-0.2,0-0.3-0.1-0.4-0.2c-0.1-0.2-0.1-0.5,0.2-0.7l8-4.6c0.5-0.3,0.8-0.8,0.8-1.4s-0.3-1.1-0.8-1.4
	l-8-4.6c-0.2-0.1-0.3-0.4-0.2-0.7C12.5,1,12.8,0.9,13.1,1l8,4.6c0.8,0.5,1.3,1.3,1.3,2.3s-0.5,1.8-1.3,2.3l-8,4.6
	C13,14.8,12.9,14.9,12.8,14.9z"/>
<path class="st0" d="M3.2,15.1c-0.4,0-0.9-0.1-1.3-0.4c-0.8-0.5-1.3-1.3-1.3-2.3V3.3c0-0.9,0.5-1.8,1.3-2.3c0.8-0.5,1.8-0.5,2.6,0
	l8,4.6c0.8,0.5,1.3,1.3,1.3,2.3s-0.5,1.8-1.3,2.3l-8,4.6C4.1,15,3.7,15.1,3.2,15.1z M3.2,1.7C3,1.7,2.7,1.8,2.4,1.9
	C1.9,2.2,1.6,2.7,1.6,3.3v9.2c0,0.6,0.3,1.1,0.8,1.4c0.5,0.3,1.1,0.3,1.6,0l8-4.6c0.5-0.3,0.8-0.8,0.8-1.4S12.5,6.8,12,6.5L4,1.9
	C3.8,1.8,3.5,1.7,3.2,1.7z"/>
</svg>
